module backend

go 1.14

require (
	github.com/astaxie/beego v1.12.2
	github.com/brianvoe/gofakeit/v4 v4.3.0
	github.com/gadelkareem/cachita v0.2.1
	github.com/gadelkareem/go-helpers v0.0.0-20200725110331-77a434fc0423
	github.com/gadelkareem/gocialite/v2 v2.0.5
	github.com/gadelkareem/que v1.0.3
	github.com/gbrlsnchs/jwt/v3 v3.0.0
	github.com/go-gomail/gomail v0.0.0-20160411212932-81ebce5c23df
	github.com/go-pg/pg/v9 v9.2.0
	github.com/google/jsonapi v0.0.0-20200825183604-3e3da1210d0c
	github.com/jackc/pgx/v4 v4.8.1
	github.com/lib/pq v1.8.0
	github.com/matcornic/hermes/v2 v2.1.0
	github.com/mitchellh/hashstructure v1.0.0
	github.com/pquerna/otp v1.2.0
	github.com/rubenv/sql-migrate v0.0.0-20200616145509-8d140a17f351
	github.com/stretchr/testify v1.6.1
	github.com/ttacon/builder v0.0.0-20170518171403-c099f663e1c2 // indirect
	github.com/ttacon/libphonenumber v1.1.0
	golang.org/x/crypto v0.0.0-20200820211705-5c72a883971a
	golang.org/x/oauth2 v0.0.0-20200902213428-5d25da1a8d43
	gopkg.in/alexcesaro/quotedprintable.v3 v3.0.0-20150716171945-2caba252f4dc // indirect
	gopkg.in/gomail.v2 v2.0.0-20160411212932-81ebce5c23df // indirect
)
